…
if(!file.exists(fn_data)) {
  url_data <- "https://data.gov.au/data/dataset/29128ebd-dbaa-4ff5-8b86-d9f30de56452/resource/cf663ed1-0c5e-497f-aea9-e74bfda9cf44/download/otp_time_series_web.csv"
  url_notes <- "https://data.gov.au/data/dataset/29128ebd-dbaa-4ff5-8b86-d9f30de56452/resource/69e214b9-b66f-4636-9c84-3efda2d0d8ae/download/otptimeserieswebnotes.txt"

  download.file(url_data, fn_data)
  download.file(url_notes, fn_notes)
}

df <- read_csv(fn_data, quote = "")
df
```

```
## # A tibble: 79,537 x 14
##    Route Departing_Port Arriving_Port Airline Month Sectors_Schedul…
##    <chr> <chr>          <chr>         <chr>   <dbl>            <dbl>
##  1 Adel… Adelaide       Brisbane      All Ai… 37987              155
##  2 Adel… Adelaide       Canberra      All Ai… 37987               75
##  3 Adel… Adelaide       Gold Coast    All Ai… 37987               40
##  4 Adel… Adelaide       Melbourne     All Ai… 37987              550
##  5 Adel… Adelaide       Perth         All Ai… 37987              191
##  6 Adel… Adelaide       Sydney        All Ai… 37987              486
##  7 Albu… Albury         Sydney        All Ai… 37987              168
##  8 Alic… Alice Springs  Sydney        All Ai… 37987               63
##  9 All … All Ports      All Ports     All Ai… 37987            31913
## 10 Bris… Brisbane       Adelaide      All Ai… 37987              155
## # … with 79,527 more rows, and 8 more variables: Sectors_Flown <dbl>,
## #   Cancellations <dbl>, Departures_On_Time <dbl>, Arrivals_On_Time <dbl>,
## #   Departures_Delayed <dbl>, Arrivals_Delayed <dbl>, Year <dbl>,
## #   Month_Num <dbl>
```
…
